"castid","repoid","s","t","notused","link","patterns"
"3516535",3647,"HttpHeader","HttpPacket","RefCast","https://lgtm.com/projects/g/GrizzlyNIO/grizzly-mirror/snapshot/dist-50010069-1524814812150/files/extras/bundles/grizzly-httpservice-bundle/src/main/java/org/glassfish/grizzly/http/HttpCodecFilter.java?#L1542","TypeTag"
"4406583",4141,"int","byte","SearchOrFilterByType","https://lgtm.com/projects/g/Unidata/thredds/snapshot/dist-15090044-1524814812150/files/dap4/d4lib/src/main/java/dap4/dap4lib/LibTypeFcns.java?#L275","Prim"
"2826516",2779,"float","double","Cast","https://lgtm.com/projects/g/dhale/jtk/snapshot/dist-61080052-1524814812150/files/core/src/main/java/edu/mines/jtk/interp/SibsonInterpolator2.java?#L364","Prim"
"8799402",7390,"int","double","Stash","https://lgtm.com/projects/g/t-oster/VisiCut/snapshot/dist-2029980683-1524814812150/files/src/com/t_oster/visicut/gui/beans/CalibrationPanel.java?#L147","Prim"
"5497333",5401,"Comparable<>","Number","ClassFamily","https://lgtm.com/projects/g/senbox-org/snap-desktop/snapshot/dist-5990318-1524814812150/files/snap-ui/src/main/java/org/esa/snap/ui/UIUtils.java?#L379","NotDeclaredInterface,ImplicitIntersectionType"
"240306",231,"Number","Object","SearchOrFilterByType","https://lgtm.com/projects/g/neo4j/neo4j-ogm/snapshot/dist-890334-1524814812150/files/core/src/main/java/org/neo4j/ogm/session/request/RequestExecutor.java?#L285","ObjectAsArray"
"8355595",6967,"Role","IPermissionHolder","RefCast","https://lgtm.com/projects/g/DV8FromTheWorld/JDA/snapshot/dist-1795071217-1524814812150/files/build/filteredSrc/net/dv8tion/jda/core/entities/impl/PermissionOverrideImpl.java?#L106","TypeTag"
"659506",709,"MessageSourceMetrics","MessageSource<?>","Cast","https://lgtm.com/projects/g/spring-projects/spring-integration/snapshot/dist-22780025-1524814812150/files/spring-integration-core/src/main/java/org/springframework/integration/graph/MessageSourceNode.java?#L34","PatternMatching"
"877897",1015,"OWLDatatype","OWLObject","InstanceOfGuarded","https://lgtm.com/projects/g/owlcs/owlapi/snapshot/dist-27430013-1524814812150/files/tools/src/main/java/org/semanticweb/owlapitools/decomposition/BotEquivalenceEvaluator.java?#L80","PatternMatching"
"1844654",1630,"EReference","EStructuralFeature","Cast","https://lgtm.com/projects/g/robotoworks/mechanoid/snapshot/dist-32600101-1524814812150/files/plugins/com.robotoworks.mechanoid.db/src-gen/com/robotoworks/mechanoid/db/sqliteModel/impl/SqliteModelPackageImpl.java?#L3080","ObjectAsArray"
"8873129",7468,"char","int","SearchOrFilterByType","https://lgtm.com/projects/b/okapiframework/okapi/snapshot/dist-1301744236-1524814812150/files/okapi/steps/searchandreplace/src/main/java/net/sf/okapi/steps/searchandreplace/SearchAndReplaceStep.java?#L422","Prim"
"5340091",5272,"TransformerException","Throwable","InstanceOfGuarded","https://lgtm.com/projects/g/robovm/robovm/snapshot/dist-39650108-1524814812150/files/rt/external/apache-xml/src/main/java/org/apache/xml/utils/DefaultErrorHandler.java?#L293","PatternMatching"
"2392397",2291,"OracleTreeModel","TreeModel","Cast","https://lgtm.com/projects/g/google/sagetv/snapshot/dist-7900333-1524814812150/files/java/sage/OracleTree.java?#L2028","Family"
"6570484",6481,"byte","int","Cast","https://lgtm.com/projects/g/RestComm/mediaserver/snapshot/dist-1796501640-1524814812150/files/codecs/g711/src/main/java/org/restcomm/media/codec/g711/alaw/EncoderData.java?#L5791","Literal"
"4631969",4429,"int","long","Cast","https://lgtm.com/projects/g/bcgit/bc-java/snapshot/dist-20740003-1524814812150/files/core/src/main/java/org/bouncycastle/math/ec/rfc7748/X25519Field.java?#L490","Prim"
"5026743",4936,"FunctionalNVar","ExpressionValue","RefCast","https://lgtm.com/projects/g/geogebra/geogebra/snapshot/dist-1800140137-1524814812150/files/common/src/main/java/org/geogebra/common/kernel/arithmetic/ExpressionNode.java?#L1006","PatternMatching"
"3386127",3540,"SimpleValue","TypeStoreUser","ClassFamily","https://lgtm.com/projects/g/SmartBear/soapui/snapshot/dist-1793321538-1524814812150/files/soapui/target/generated-sources/xmlbeans/com/eviware/soapui/config/impl/PropertiesStepConfigImpl.java?#L93","LookupById"
"8587926",7097,"Integer","Integer","SearchOrFilterByType","https://lgtm.com/projects/g/gramoli/synchrobench/snapshot/dist-1799241901-1524814812150/files/java/src/contention/benchmark/Test.java?#L88","Redundant"
"4274160",3968,"byte","int","PrimCast","https://lgtm.com/projects/g/openhab/openhab1-addons/snapshot/dist-1974671824-1524814812150/files/bundles/binding/org.openhab.binding.stiebelheatpump.test/src/test/java/org/openhab/binding/stiebelheatpump/protocol/StiebelHeatPumpDataParserTest.java?#L837","Literal"
"3996167",3707,"byte","int","PrimCast","https://lgtm.com/projects/g/sirensolutions/siren/snapshot/dist-1796310667-1524814812150/files/siren-core/src/main/java/com/sindicetech/siren/index/codecs/block/AForFrameCompressor.java?#L6889","Prim"
"3217954",3294,"Wire","Component","Cast","https://lgtm.com/projects/g/lawrancej/logisim/snapshot/dist-43700088-1524814812150/files/src/main/java/com/cburch/logisim/circuit/CircuitState.java?#L57","PatternMatching"
"442465",453,"int","long","SearchOrFilterByType","https://lgtm.com/projects/g/SquidPony/SquidLib/snapshot/dist-41520034-1524814812150/files/squidlib-util/src/main/java/squidpony/squidmath/CrossHash.java?#L170","Prim"
"8903238",7488,"WeightFunc","Object","RefCast","https://lgtm.com/projects/b/marytts/marytts/snapshot/dist-1311230029-1524814812150/files/marytts-runtime/src/main/java/marytts/unitselection/weightingfunctions/WeightFunctionManager.java?#L78","RawType"
"7052578",6763,"ReplayCommand","Object","Redundant","https://lgtm.com/projects/g/apache/activemq/snapshot/dist-11730660-1524814812150/files/activemq-openwire-legacy/src/main/java/org/apache/activemq/openwire/v7/ReplayCommandMarshaller.java?#L125","Family"
"2195263",2001,"String","Object","RefCast","https://lgtm.com/projects/g/zycgit/hasor/snapshot/dist-41520030-1524814812150/files/hasor-rsf/src/main/java/net/hasor/rsf/libs/com/hprose/io/convert/DateTimeConverter.java?#L31","PatternMatching"
"8517963",7035,"CommonTree","Object","Cast","https://lgtm.com/projects/g/sigmoidanalytics/spork/snapshot/dist-1794190395-1524814812150/files/src-gen/org/apache/pig/parser/AliasMasker.java?#L13820","?brokenlink"
"5622043",5500,"AdminDeleteUserRequest","AmazonWebServiceRequest","Cast","https://lgtm.com/projects/g/aws/aws-sdk-java/snapshot/dist-6950065-1524814812150/files/aws-java-sdk-cognitoidp/src/main/java/com/amazonaws/services/cognitoidp/model/AdminDeleteUserRequest.java?#L176","Clone"
"8082825",6867,"Builder","Builder","Cast","https://lgtm.com/projects/g/apache/hbase/snapshot/dist-19218571-1524814812150/files/hbase-protocol-shaded/target/generated-sources/protobuf/java/org/apache/hadoop/hbase/shaded/protobuf/generated/ReplicationProtos.java?#L4106","CovariantReturn"
"1734548",1508,"String","Object","RefCast","https://lgtm.com/projects/g/Alluxio/alluxio/snapshot/dist-940007-1524814812150/files/core/protobuf/src/main/java/alluxio/proto/journal/File.java?#L5005","PatternMatching"
"8097397",6867,"LeafExpressionNode","ExpressionNode","RefCast","https://lgtm.com/projects/g/apache/hbase/snapshot/dist-19218571-1524814812150/files/hbase-server/src/test/java/org/apache/hadoop/hbase/security/visibility/TestExpressionParser.java?#L156","AssertType"
"3385580",3540,"TestSuiteConfig","TypeStoreUser","ClassFamily","https://lgtm.com/projects/g/SmartBear/soapui/snapshot/dist-1793321538-1524814812150/files/soapui/target/generated-sources/xmlbeans/com/eviware/soapui/config/impl/ProjectConfigImpl.java?#L380","LookupById"
"2419944",2301,"PlaceholderTypeDecl","PlaceholderTypeDecl","RefCast","https://lgtm.com/projects/g/google/simplecfg/snapshot/dist-1506129906014-1524814812150/files/src/gen/java/com/google/simplecfg/ast/PlaceholderTypeDecl.java?#L118","Clone"
"5437651",5294,"Double","Object","Redundant","https://lgtm.com/projects/g/opensourceBIM/BIMserver/snapshot/dist-44770082-1524814812150/files/PluginBase/generated/org/bimserver/models/ifc4/impl/IfcKinematicViscosityMeasureImpl.java?#L91","LookupById"
"2370150",2268,"PlainA","Object","InstanceOfGuarded","https://lgtm.com/projects/g/google/guice/snapshot/dist-12160006-1524814812150/files/core/target/munged/test/com/google/inject/BinderTestSuite.java?#L780","Equals"
"3668819",3647,"TCPNIOConnection","NIOConnection","ExceptionForRethrow","https://lgtm.com/projects/g/GrizzlyNIO/grizzly-mirror/snapshot/dist-50010069-1524814812150/files/modules/bundles/http/src/main/java/org/glassfish/grizzly/nio/transport/TCPNIOAsyncQueueWriter.java?#L136","Family"
"8897600",7488,"int","double","PrimCast","https://lgtm.com/projects/g/marytts/marytts/snapshot/dist-1311230029-1524814812150/files/marytts-builder/src/main/java/marytts/tools/voiceimport/QualityControl.java?#L677","Prim"
"676126",713,"long","Object","SearchOrFilterByType","https://lgtm.com/projects/g/spring-projects/spring-session/snapshot/dist-11110073-1524814812150/files/spring-session-data-redis/src/main/java/org/springframework/session/data/redis/RedisOperationsSessionRepository.java?#L453","DictionaryObject"
"5225868",5110,"String","Object","Cast","https://lgtm.com/projects/g/yamcs/yamcs/snapshot/dist-3960331-1524814812150/files/yamcs-api/src/main/java/org/yamcs/protobuf/Pvalue.java?#L5172","PatternMatching"
"4296004",3980,"UserDefinedParser","Object","Cast","https://lgtm.com/projects/g/sanity/LastCalc/snapshot/dist-50560149-1524814812150/files/src/main/java/com/lastcalc/parsers/UserDefinedParserParser.java?#L281","Equals"
"6396532",6314,"TextView","View","CovariantReturn","https://lgtm.com/projects/g/miyosuda/TensorFlowAndroidMNIST/snapshot/dist-1506201176761-1524814812150/files/app/src/main/java/jp/narr/tensorflowmnist/MainActivity.java?#L79","StaticResource"
"2933114",2947,"DenseLargeDoubleMatrix2D","DoubleMatrix2D","ClassFamily","https://lgtm.com/projects/g/molgenis/systemsgenetics/snapshot/dist-9990374-1524814812150/files/javaPoCA/src/main/java/nl/umcg/bondermj/pcoa/DoPcoa.java?#L397","TypeTag"
"5268539",5152,"ConcurrentHashMap<Credential,ManagedConnectionPool>","Object","RefCast","https://lgtm.com/projects/g/ironjacamar/ironjacamar/snapshot/dist-5970095-1524814812150/files/testsuite/src/test/java/org/ironjacamar/core/connectionmanager/pool/dflt/CriTestCase.java?#L260","ReflectiveAccesibility"
"7434261",6818,"byte","int","Redundant","https://lgtm.com/projects/g/apache/cayenne/snapshot/dist-1890050-1524814812150/files/cayenne-server/src/test/java/org/apache/cayenne/util/Base64CodecTest.java?#L356","Literal"
"4157748",3862,"TransactionService","Object","RefCast","https://lgtm.com/projects/g/Alfresco/community-edition/snapshot/dist-10560105-1524814812150/files/projects/repository/source/test-java/org/alfresco/repo/security/permissions/impl/AclDaoComponentTest.java?#L145","LookupById"
"1641860",1396,"JDBCDataStore","DataStore","Testing","https://lgtm.com/projects/g/geotools/geotools/snapshot/dist-34400114-1524814812150/files/modules/plugin/jdbc/jdbc-sqlserver/src/test/java/org/geotools/data/sqlserver/jdts/SQLServerJTDSJNDITest.java?#L52","Family"
"1757631",1556,"float","double","PrimCast","https://lgtm.com/projects/g/winder/Universal-G-Code-Sender/snapshot/dist-1793731236-1524814812150/files/ugs-platform/ugs-platform-gcode-editor/src/main/java/com/willwinder/ugs/nbp/editor/Highlight.java?#L134","Prim"
"481186",491,"AlarmManager","Object","LookupById","https://lgtm.com/projects/g/prey/prey-android-client/snapshot/dist-2027880724-1524814812150/files/app/src/main/java/com/prey/PreyScheduled.java?#L45","LookupById"
"7324442",6806,"GridAbstractTest","Test","InstanceOfGuarded","https://lgtm.com/projects/g/apache/ignite/snapshot/dist-4930010-1524814812150/files/modules/core/src/test/java/org/apache/ignite/testframework/IgniteTestSuite.java?#L220","PatternMatching"
"1223530",1161,"Symbol","Object","Cast","https://lgtm.com/projects/g/eclipse/pdt/snapshot/dist-19313119-1524814812150/files/plugins/org.eclipse.php.core/src/org/eclipse/php/internal/core/compiler/ast/parser/php7/CompilerAstParser.java?#L9977","?brokenlink"
"2754689",2686,"InstancePrincipalsAuthenticationDetailsProvider","AbstractAuthenticationDetailsProvider","InstanceOfGuarded","https://lgtm.com/projects/g/oracle/oci-java-sdk/snapshot/dist-2148600069-1524814812150/files/bmc-database/src/main/java/com/oracle/bmc/database/DatabaseAsyncClient.java?#L633","PatternMatching"
